{
    "bucket": "brunore-ram-dev-100-testexport",
    "componentCount": 0,
    "contentType": "application/x-ndjson",
    "crc32c": "kqrlAg==",
    "etag": "CI7iofLrg/YCEAE=",
    "generation": "1645001436590350",
    "id": "brunore-ram-dev-100-exports/t2022-02-16T08-50-09-290151794Z_org167600783936_resource_b3dbcccac2eba261ee27a9a12ddf86b23acb5e2351136f1cf8818bf4d7413238/dns.googleapis.com/ManagedZone/0/1645001436590350",
    "kind": "storage#object",
    "mediaLink": "https://www.googleapis.com/download/storage/v1/b/brunore-ram-dev-100-exports/o/t2022-02-16T08-50-09-290151794Z_org167600783936_resource_b3dbcccac2eba261ee27a9a12ddf86b23acb5e2351136f1cf8818bf4d7413238%2Fdns.googleapis.com%2FManagedZone%2F0?generation=1645001436590350\u0026alt=media",
    "metageneration": "1",
    "name": "export_iam.txt",
    "selfLink": "https://www.googleapis.com/storage/v1/b/brunore-ram-dev-100-exports/o/t2022-02-16T08-50-09-290151794Z_org167600783936_resource_b3dbcccac2eba261ee27a9a12ddf86b23acb5e2351136f1cf8818bf4d7413238%2Fdns.googleapis.com%2FManagedZone%2F0",
    "size": "1844",
    "storageClass": "STANDARD",
    "timeCreated": "2022-02-16T08:50:36.596Z",
    "timeStorageClassUpdated": "2022-02-16T08:50:36.596Z",
    "updated": "2022-02-16T08:50:36.596Z"
}